%YAML 1.1
%TAG !u! tag:unity3d.com,2011:
--- !u!1045 &1
EditorBuildSettings:
  m_ObjectHideFlags: 0
  serializedVersion: 2
  m_Scenes:
  - enabled: 1
    path: Assets/Scenes/GameLevel1.unity
    guid: c4f4e94e92dec2147957433d31ce3af9
  - enabled: 1
    path: Assets/Scenes/GameLevel2.unity
    guid: 07e46a2514379a547ae3f3064e53ab32
  - enabled: 1
    path: Assets/Scenes/EndGame.unity
    guid: bf7530685edc47148b291f0e6df6791e
  m_configObjects: {}
